{
    "app_name" : "<LIVE_STREAM_APP_NAME>",
    "domain" : "<LIVE_STREAM_DOMAIN_NAME>",
    "stream_name" : "<LIVE_STREAMING_STREAM_NAME>",
    "transcoding_id" : "<APSARA_VOD_TRANSCODING_ID>",
    "max_cycle_duration" : 300
}
